Overview • eyesim
…
}

df1 <- lapply(c("s1", "s2", "s3"), function(snum) {
  lapply(c("encoding", "retrieval"), function(phase) {
    lapply(paste0(1:50), function(trial) {
      gen_fixations(paste0("im", trial), phase, trial, snum)
    }) %>% bind_rows()
  }) %>% bind_rows()
}) %>% bind_rows()

Now we are ready to create an eye_table data structure which stores the fixations and associates them with the experimental design and a grouping structure. Here we will group the fixations by “image”, “participant”, and “phase”. The will allow sets of fixations to be grouped together in fixation_groups so that eye-movement similarity analyses can be carried out. Without grouping variables, there is no way to know how to pool eye-movements together in sets appropriate for kernel density estimation or other analyses.

eyetab <- eye_table("x", "y", "duration", "onset", groupvar=c("participant", "phase", "image"), data=df1)

#> # A tibble: 300 × 4
#> # Groups:   participant, phase, image [300]
#>    participant phase    image fixgroup                 
#>    <chr>       <chr>    <chr> <list>                   
#>  1 s1          encoding im1   <fixation_group [9 × 6]> 
#>  2 s1          encoding im10  <fixation_group [8 × 6]> 
#>  3 s1          encoding im11  <fixation_group [2 × 6]> 
#>  4 s1          encoding im12  <fixation_group [4 × 6]> 
#>  5 s1          encoding im13  <fixation_group [8 × 6]> 
#>  6 s1          encoding im14  <fixation_group [6 × 6]> 
#>  7 s1          encoding im15  <fixation_group [10 × 6]>
#>  8 s1          encoding im16  <fixation_group [2 × 6]> 
#>  9 s1          encoding im17  <fixation_group [4 × 6]> 
#> 10 s1          encoding im18  <fixation_group [3 × 6]> 
#> # … with 290 more rows
…
Below we print the first 10 rows of the resulting data.frame, which contains the eye_density objects stored in the density variable.

eyedens
#> # A tibble: 300 × 5
#> # Rowwise: 
#>    phase    image participant fixgroup                 density       
#>    <chr>    <chr> <chr>       <list>                   <list>        
#>  1 encoding im1   s1          <fixation_group [9 × 6]> <ey_dnsty [4]>
#>  2 encoding im1   s2          <fixation_group [4 × 6]> <ey_dnsty [4]>
#>  3 encoding im1   s3          <fixation_group [9 × 6]> <ey_dnsty [4]>
#>  4 encoding im10  s1          <fixation_group [8 × 6]> <ey_dnsty [4]>
#>  5 encoding im10  s2          <fixation_group [6 × 6]> <ey_dnsty [4]>
#>  6 encoding im10  s3          <fixation_group [9 × 6]> <ey_dnsty [4]>
#>  7 encoding im11  s1          <fixation_group [2 × 6]> <ey_dnsty [4]>
#>  8 encoding im11  s2          <fixation_group [1 × 6]> <ey_dnsty [4]>
#>  9 encoding im11  s3          <fixation_group [4 × 6]> <ey_dnsty [4]>
#> 10 encoding im12  s1          <fixation_group [4 × 6]> <ey_dnsty [4]>
#> # … with 290 more rows
…
