…
Wrap the raw data in an `eye_table`, which groups fixations by the
variables that define your experimental design:

``` r
eyetab <- eye_table("x", "y", "duration", "onset",
                    groupvar = c("participant", "phase", "image"),
                    data = df)
eyetab
#> # A tibble: 120 × 4
#>    participant phase    image fixgroup           
#>    <chr>       <chr>    <chr> <list>             
#>  1 s1          encoding img1  <fxtn_grp [10 × 6]>
#>  2 s1          encoding img10 <fxtn_grp [4 × 6]> 
#>  3 s1          encoding img11 <fxtn_grp [3 × 6]> 
#>  4 s1          encoding img12 <fxtn_grp [10 × 6]>
#>  5 s1          encoding img13 <fxtn_grp [10 × 6]>
#>  6 s1          encoding img14 <fxtn_grp [4 × 6]> 
#>  7 s1          encoding img15 <fxtn_grp [10 × 6]>
#>  8 s1          encoding img16 <fxtn_grp [7 × 6]> 
#>  9 s1          encoding img17 <fxtn_grp [3 × 6]> 
#> 10 s1          encoding img18 <fxtn_grp [4 × 6]> 
#> # ℹ 110 more rows
```
…
``` r
eyedens <- density_by(eyetab,
                      groups = c("phase", "image", "participant"),
                      sigma = 100,
                      xbounds = c(0, 100), ybounds = c(0, 100))
```

![Four density maps from the simulated
experiment.](eyesim_files/figure-html/plot-densities-1.png)

Four density maps from the simulated experiment.

``` r
eyedens
#> # A tibble: 120 × 5
#>    phase    image participant fixgroup            density       
#>    <chr>    <chr> <chr>       <list>              <list>        
#>  1 encoding img1  s1          <fxtn_grp [10 × 6]> <ey_dnsty [5]>
#>  2 encoding img1  s2          <fxtn_grp [8 × 6]>  <ey_dnsty [5]>
#>  3 encoding img1  s3          <fxtn_grp [8 × 6]>  <ey_dnsty [5]>
#>  4 encoding img10 s1          <fxtn_grp [4 × 6]>  <ey_dnsty [5]>
#>  5 encoding img10 s2          <fxtn_grp [4 × 6]>  <ey_dnsty [5]>
#>  6 encoding img10 s3          <fxtn_grp [8 × 6]>  <ey_dnsty [5]>
#>  7 encoding img11 s1          <fxtn_grp [3 × 6]>  <ey_dnsty [5]>
#>  8 encoding img11 s2          <fxtn_grp [3 × 6]>  <ey_dnsty [5]>
#>  9 encoding img11 s3          <fxtn_grp [9 × 6]>  <ey_dnsty [5]>
#> 10 encoding img12 s1          <fxtn_grp [10 × 6]> <ey_dnsty [5]>
#> # ℹ 110 more rows
```
…
