Overview • eyesim
…
Now we are ready to create an eye_table data structure
which stores the fixations and associates them with the experimental
design and a grouping structure. Here we will group the fixations by
“image”, “participant”, and “phase”. The will allow sets of fixations to
be grouped together in fixation_groups so that eye-movement
similarity analyses can be carried out. Without grouping variables,
there is no way to know how to pool eye-movements together in sets
appropriate for kernel density estimation or other analyses.

eyetab <- eye_table("x", "y", "duration", "onset", groupvar=c("participant", "phase", "image"), data=df1)

#> # A tibble: 300 × 4
#> # Groups:   participant, phase, image [300]
#>    participant phase    image fixgroup          
#>    <chr>       <chr>    <chr> <list>            
#>  1 s1          encoding im1   <fxtn_grp [5 × 6]>
#>  2 s1          encoding im10  <fxtn_grp [4 × 6]>
#>  3 s1          encoding im11  <fxtn_grp [4 × 6]>
#>  4 s1          encoding im12  <fxtn_grp [2 × 6]>
#>  5 s1          encoding im13  <fxtn_grp [9 × 6]>
#>  6 s1          encoding im14  <fxtn_grp [9 × 6]>
#>  7 s1          encoding im15  <fxtn_grp [5 × 6]>
#>  8 s1          encoding im16  <fxtn_grp [6 × 6]>
#>  9 s1          encoding im17  <fxtn_grp [6 × 6]>
#> 10 s1          encoding im18  <fxtn_grp [4 × 6]>
#> # ℹ 290 more rows
…
Below we print the first 10 rows of the resulting data.frame, which
contains the eye_density objects stored in the
density variable.

eyedens
#> # A tibble: 276 × 5
#>    phase    image participant fixgroup            density       
#>    <chr>    <chr> <chr>       <list>              <list>        
#>  1 encoding im1   s1          <fxtn_grp [5 × 6]>  <ey_dnsty [5]>
#>  2 encoding im1   s2          <fxtn_grp [10 × 6]> <ey_dnsty [5]>
#>  3 encoding im1   s3          <fxtn_grp [2 × 6]>  <ey_dnsty [5]>
#>  4 encoding im10  s1          <fxtn_grp [4 × 6]>  <ey_dnsty [5]>
#>  5 encoding im10  s2          <fxtn_grp [7 × 6]>  <ey_dnsty [5]>
#>  6 encoding im11  s1          <fxtn_grp [4 × 6]>  <ey_dnsty [5]>
#>  7 encoding im11  s2          <fxtn_grp [3 × 6]>  <ey_dnsty [5]>
#>  8 encoding im11  s3          <fxtn_grp [8 × 6]>  <ey_dnsty [5]>
#>  9 encoding im12  s1          <fxtn_grp [2 × 6]>  <ey_dnsty [5]>
#> 10 encoding im12  s2          <fxtn_grp [3 × 6]>  <ey_dnsty [5]>
#> # ℹ 266 more rows
…
